{
    "count": 1092,
    "next": "https://atlas.ripe.net/api/v2/probes/?fields=id%2Cgeometry&latitude__gte=36.22&latitude__lte=43.76&longitude__gte=-9.55&longitude__lte=0&page=2",
    "previous": null,
    "results": [
        {
            "geometry": {
                "type": "Point",
                "coordinates": [
                    -9.1515,
                    38.7295
                ]
            },
            "id": 24,
            "type": "Probe"
        },
        {
            "geometry": {
                "type": "Point",
                "coordinates": [
                    -0.3705,
                    43.2975
                ]
            },
            "id": 41,
            "type": "Probe"
        },
        {
            "geometry": {
                "type": "Point",
                "coordinates": [
                    -8.8125,
                    39.7485
                ]
            },
            "id": 112,
            "type": "Probe"
        },
        {
            "geometry": {
                "type": "Point",
                "coordinates": [
                    -3.6705,
                    40.5205
                ]
            },
            "id": 147,
            "type": "Probe"
        },
        {
            "geometry": {
                "type": "Point",
                "coordinates": [
                    -3.7005,
                    40.4195
                ]
            },
            "id": 155,
            "type": "Probe"
        },
        {
            "geometry": {
                "type": "Point",
                "coordinates": [
                    -3.9795,
                    40.6015
                ]
            },
            "id": 179,
            "type": "Probe"
        },
        {
            "geometry": {
                "type": "Point",
                "coordinates": [
                    -3.6885,
                    40.4515
                ]
            },
            "id": 199,
            "type": "Probe"
        },
        {
            "geometry": {
                "type": "Point",
                "coordinates": [
                    -3.6325,
                    40.5475
                ]
            },
            "id": 300,
            "type": "Probe"
        },
        {
            "geometry": {
                "type": "Point",
                "coordinates": [
                    -1.1315,
                    37.9895
                ]
            },
            "id": 334,
            "type": "Probe"
        },
        {
            "geometry": {
                "type": "Point",
                "coordinates": [
                    -3.9805,
                    40.5975
                ]
            },
            "id": 341,
            "type": "Probe"
        },
        {
            "geometry": {
                "type": "Point",
                "coordinates": [
                    -3.6305,
                    40.5315
                ]
            },
            "id": 349,
            "type": "Probe"
        },
        {
            "geometry": {
                "type": "Point",
                "coordinates": [
                    -3.7325,
                    40.4495
                ]
            },
            "id": 405,
            "type": "Probe"
        },
        {
            "geometry": {
                "type": "Point",
                "coordinates": [
                    -3.8725,
                    40.4895
                ]
            },
            "id": 415,
            "type": "Probe"
        },
        {
            "geometry": {
                "type": "Point",
                "coordinates": [
                    -3.5725,
                    40.4505
                ]
            },
            "id": 417,
            "type": "Probe"
        },
        {
            "geometry": {
                "type": "Point",
                "coordinates": [
                    -9.3005,
                    38.7295
                ]
            },
            "id": 445,
            "type": "Probe"
        },
        {
            "geometry": {
                "type": "Point",
                "coordinates": [
                    -4.1505,
                    40.5915
                ]
            },
            "id": 448,
            "type": "Probe"
        },
        {
            "geometry": {
                "type": "Point",
                "coordinates": [
                    -3.9815,
                    40.5985
                ]
            },
            "id": 632,
            "type": "Probe"
        },
        {
            "geometry": {
                "type": "Point",
                "coordinates": [
                    -8.6015,
                    41.1795
                ]
            },
            "id": 634,
            "type": "Probe"
        },
        {
            "geometry": {
                "type": "Point",
                "coordinates": [
                    -9.2915,
                    38.7005
                ]
            },
            "id": 636,
            "type": "Probe"
        },
        {
            "geometry": {
                "type": "Point",
                "coordinates": [
                    -5.9295,
                    37.3375
                ]
            },
            "id": 660,
            "type": "Probe"
        },
        {
            "geometry": {
                "type": "Point",
                "coordinates": [
                    -8.8495,
                    39.7475
                ]
            },
            "id": 671,
            "type": "Probe"
        },
        {
            "geometry": {
                "type": "Point",
                "coordinates": [
                    -3.6795,
                    40.4005
                ]
            },
            "id": 676,
            "type": "Probe"
        },
        {
            "geometry": {
                "type": "Point",
                "coordinates": [
                    -5.9995,
                    37.3815
                ]
            },
            "id": 679,
            "type": "Probe"
        },
        {
            "geometry": {
                "type": "Point",
                "coordinates": [
                    -9.1385,
                    38.7085
                ]
            },
            "id": 692,
            "type": "Probe"
        },
        {
            "geometry": {
                "type": "Point",
                "coordinates": [
                    -7.9985,
                    39.4995
                ]
            },
            "id": 695,
            "type": "Probe"
        },
        {
            "geometry": {
                "type": "Point",
                "coordinates": [
                    -9.0525,
                    38.8875
                ]
            },
            "id": 711,
            "type": "Probe"
        },
        {
            "geometry": {
                "type": "Point",
                "coordinates": [
                    -4.4525,
                    36.6995
                ]
            },
            "id": 715,
            "type": "Probe"
        },
        {
            "geometry": {
                "type": "Point",
                "coordinates": [
                    -9.3015,
                    38.7485
                ]
            },
            "id": 722,
            "type": "Probe"
        },
        {
            "geometry": {
                "type": "Point",
                "coordinates": [
                    -9.1215,
                    38.7595
                ]
            },
            "id": 724,
            "type": "Probe"
        },
        {
            "geometry": {
                "type": "Point",
                "coordinates": [
                    -0.3705,
                    43.3005
                ]
            },
            "id": 757,
            "type": "Probe"
        },
        {
            "geometry": {
                "type": "Point",
                "coordinates": [
                    -9.3625,
                    38.7085
                ]
            },
            "id": 803,
            "type": "Probe"
        },
        {
            "geometry": {
                "type": "Point",
                "coordinates": [
                    -3.9325,
                    40.5195
                ]
            },
            "id": 805,
            "type": "Probe"
        },
        {
            "geometry": {
                "type": "Point",
                "coordinates": [
                    -9.1425,
                    38.7115
                ]
            },
            "id": 819,
            "type": "Probe"
        },
        {
            "geometry": {
                "type": "Point",
                "coordinates": [
                    -3.7105,
                    40.6015
                ]
            },
            "id": 848,
            "type": "Probe"
        },
        {
            "geometry": {
                "type": "Point",
                "coordinates": [
                    -9.0905,
                    38.8795
                ]
            },
            "id": 855,
            "type": "Probe"
        },
        {
            "geometry": {
                "type": "Point",
                "coordinates": [
                    -9.1125,
                    38.7715
                ]
            },
            "id": 918,
            "type": "Probe"
        },
        {
            "geometry": {
                "type": "Point",
                "coordinates": [
                    -0.3715,
                    43.2985
                ]
            },
            "id": 932,
            "type": "Probe"
        },
        {
            "geometry": {
                "type": "Point",
                "coordinates": [
                    -9.1895,
                    38.8085
                ]
            },
            "id": 972,
            "type": "Probe"
        },
        {
            "geometry": {
                "type": "Point",
                "coordinates": [
                    -9.3195,
                    38.7315
                ]
            },
            "id": 978,
            "type": "Probe"
        },
        {
            "geometry": {
                "type": "Point",
                "coordinates": [
                    -8.5025,
                    40.1095
                ]
            },
            "id": 1204,
            "type": "Probe"
        },
        {
            "geometry": {
                "type": "Point",
                "coordinates": [
                    -9.1515,
                    38.7275
                ]
            },
            "id": 1221,
            "type": "Probe"
        },
        {
            "geometry": {
                "type": "Point",
                "coordinates": [
                    -9.3985,
                    38.8695
                ]
            },
            "id": 1285,
            "type": "Probe"
        },
        {
            "geometry": {
                "type": "Point",
                "coordinates": [
                    -9.2585,
                    38.7595
                ]
            },
            "id": 1294,
            "type": "Probe"
        },
        {
            "geometry": {
                "type": "Point",
                "coordinates": [
                    -9.1115,
                    38.7715
                ]
            },
            "id": 1328,
            "type": "Probe"
        },
        {
            "geometry": {
                "type": "Point",
                "coordinates": [
                    -9.1405,
                    38.7205
                ]
            },
            "id": 1346,
            "type": "Probe"
        },
        {
            "geometry": {
                "type": "Point",
                "coordinates": [
                    -1.2215,
                    37.9675
                ]
            },
            "id": 1531,
            "type": "Probe"
        },
        {
            "geometry": {
                "type": "Point",
                "coordinates": [
                    -1.9825,
                    43.3175
                ]
            },
            "id": 2001,
            "type": "Probe"
        },
        {
            "geometry": {
                "type": "Point",
                "coordinates": [
                    -3.7215,
                    40.3985
                ]
            },
            "id": 2023,
            "type": "Probe"
        },
        {
            "geometry": {
                "type": "Point",
                "coordinates": [
                    -9.1425,
                    38.7505
                ]
            },
            "id": 2117,
            "type": "Probe"
        },
        {
            "geometry": {
                "type": "Point",
                "coordinates": [
                    -0.4985,
                    43.4705
                ]
            },
            "id": 2197,
            "type": "Probe"
        },
        {
            "geometry": {
                "type": "Point",
                "coordinates": [
                    -9.3115,
                    38.7895
                ]
            },
            "id": 2234,
            "type": "Probe"
        },
        {
            "geometry": {
                "type": "Point",
                "coordinates": [
                    -9.2805,
                    38.7605
                ]
            },
            "id": 2256,
            "type": "Probe"
        },
        {
            "geometry": {
                "type": "Point",
                "coordinates": [
                    -9.1405,
                    38.7615
                ]
            },
            "id": 2259,
            "type": "Probe"
        },
        {
            "geometry": {
                "type": "Point",
                "coordinates": [
                    -9.1415,
                    38.7085
                ]
            },
            "id": 2323,
            "type": "Probe"
        },
        {
            "geometry": {
                "type": "Point",
                "coordinates": [
                    -9.1415,
                    38.7215
                ]
            },
            "id": 2338,
            "type": "Probe"
        },
        {
            "geometry": {
                "type": "Point",
                "coordinates": [
                    -9.2105,
                    38.7605
                ]
            },
            "id": 2347,
            "type": "Probe"
        },
        {
            "geometry": {
                "type": "Point",
                "coordinates": [
                    -9.1295,
                    38.7205
                ]
            },
            "id": 2376,
            "type": "Probe"
        },
        {
            "geometry": {
                "type": "Point",
                "coordinates": [
                    -3.6085,
                    40.3895
                ]
            },
            "id": 2394,
            "type": "Probe"
        },
        {
            "geometry": {
                "type": "Point",
                "coordinates": [
                    -3.4825,
                    40.4605
                ]
            },
            "id": 2406,
            "type": "Probe"
        },
        {
            "geometry": {
                "type": "Point",
                "coordinates": [
                    -3.6905,
                    40.4595
                ]
            },
            "id": 2454,
            "type": "Probe"
        },
        {
            "geometry": {
                "type": "Point",
                "coordinates": [
                    -8.9685,
                    38.7515
                ]
            },
            "id": 2489,
            "type": "Probe"
        },
        {
            "geometry": {
                "type": "Point",
                "coordinates": [
                    -3.6985,
                    40.3985
                ]
            },
            "id": 2492,
            "type": "Probe"
        },
        {
            "geometry": {
                "type": "Point",
                "coordinates": [
                    -8.6095,
                    41.1485
                ]
            },
            "id": 2563,
            "type": "Probe"
        },
        {
            "geometry": {
                "type": "Point",
                "coordinates": [
                    -2.6695,
                    42.8495
                ]
            },
            "id": 2574,
            "type": "Probe"
        },
        {
            "geometry": {
                "type": "Point",
                "coordinates": [
                    -0.8785,
                    41.6495
                ]
            },
            "id": 2595,
            "type": "Probe"
        },
        {
            "geometry": {
                "type": "Point",
                "coordinates": [
                    -3.5725,
                    40.4495
                ]
            },
            "id": 2604,
            "type": "Probe"
        },
        {
            "geometry": {
                "type": "Point",
                "coordinates": [
                    -0.0005,
                    42.6975
                ]
            },
            "id": 2640,
            "type": "Probe"
        },
        {
            "geometry": {
                "type": "Point",
                "coordinates": [
                    -0.3685,
                    43.3175
                ]
            },
            "id": 2690,
            "type": "Probe"
        },
        {
            "geometry": {
                "type": "Point",
                "coordinates": [
                    -4.5205,
                    36.5975
                ]
            },
            "id": 2740,
            "type": "Probe"
        },
        {
            "geometry": {
                "type": "Point",
                "coordinates": [
                    -0.3825,
                    39.4685
                ]
            },
            "id": 2813,
            "type": "Probe"
        },
        {
            "geometry": {
                "type": "Point",
                "coordinates": [
                    -8.5585,
                    41.2415
                ]
            },
            "id": 2889,
            "type": "Probe"
        },
        {
            "geometry": {
                "type": "Point",
                "coordinates": [
                    -9.1185,
                    38.7895
                ]
            },
            "id": 2894,
            "type": "Probe"
        },
        {
            "geometry": {
                "type": "Point",
                "coordinates": [
                    -8.9715,
                    38.7315
                ]
            },
            "id": 3129,
            "type": "Probe"
        },
        {
            "geometry": {
                "type": "Point",
                "coordinates": [
                    -9.2815,
                    38.7575
                ]
            },
            "id": 3131,
            "type": "Probe"
        },
        {
            "geometry": {
                "type": "Point",
                "coordinates": [
                    -7.4195,
                    39.2915
                ]
            },
            "id": 3169,
            "type": "Probe"
        },
        {
            "geometry": {
                "type": "Point",
                "coordinates": [
                    -9.0995,
                    38.7715
                ]
            },
            "id": 3178,
            "type": "Probe"
        },
        {
            "geometry": {
                "type": "Point",
                "coordinates": [
                    -9.4215,
                    38.7085
                ]
            },
            "id": 3233,
            "type": "Probe"
        },
        {
            "geometry": {
                "type": "Point",
                "coordinates": [
                    -0.0015,
                    40.4005
                ]
            },
            "id": 3236,
            "type": "Probe"
        },
        {
            "geometry": {
                "type": "Point",
                "coordinates": [
                    -9.0795,
                    38.6095
                ]
            },
            "id": 3265,
            "type": "Probe"
        },
        {
            "geometry": {
                "type": "Point",
                "coordinates": [
                    -0.8895,
                    41.6475
                ]
            },
            "id": 3471,
            "type": "Probe"
        },
        {
            "geometry": {
                "type": "Point",
                "coordinates": [
                    -9.2885,
                    38.7715
                ]
            },
            "id": 3598,
            "type": "Probe"
        },
        {
            "geometry": {
                "type": "Point",
                "coordinates": [
                    -3.7925,
                    40.4485
                ]
            },
            "id": 3712,
            "type": "Probe"
        },
        {
            "geometry": {
                "type": "Point",
                "coordinates": [
                    -3.7015,
                    40.4175
                ]
            },
            "id": 3720,
            "type": "Probe"
        },
        {
            "geometry": {
                "type": "Point",
                "coordinates": [
                    -3.7115,
                    40.4305
                ]
            },
            "id": 3726,
            "type": "Probe"
        },
        {
            "geometry": {
                "type": "Point",
                "coordinates": [
                    -3.6905,
                    40.4915
                ]
            },
            "id": 3748,
            "type": "Probe"
        },
        {
            "geometry": {
                "type": "Point",
                "coordinates": [
                    -3.6805,
                    40.3495
                ]
            },
            "id": 3755,
            "type": "Probe"
        },
        {
            "geometry": {
                "type": "Point",
                "coordinates": [
                    -4.5205,
                    36.6015
                ]
            },
            "id": 3758,
            "type": "Probe"
        },
        {
            "geometry": {
                "type": "Point",
                "coordinates": [
                    -3.6485,
                    40.4495
                ]
            },
            "id": 3785,
            "type": "Probe"
        },
        {
            "geometry": {
                "type": "Point",
                "coordinates": [
                    -2.0105,
                    43.3115
                ]
            },
            "id": 4048,
            "type": "Probe"
        },
        {
            "geometry": {
                "type": "Point",
                "coordinates": [
                    -2.9505,
                    43.2585
                ]
            },
            "id": 4053,
            "type": "Probe"
        },
        {
            "geometry": {
                "type": "Point",
                "coordinates": [
                    -2.9495,
                    43.2615
                ]
            },
            "id": 4068,
            "type": "Probe"
        },
        {
            "geometry": {
                "type": "Point",
                "coordinates": [
                    -2.9505,
                    43.2685
                ]
            },
            "id": 4143,
            "type": "Probe"
        },
        {
            "geometry": {
                "type": "Point",
                "coordinates": [
                    -9.1585,
                    38.7395
                ]
            },
            "id": 4194,
            "type": "Probe"
        },
        {
            "geometry": {
                "type": "Point",
                "coordinates": [
                    -9.1025,
                    38.7715
                ]
            },
            "id": 4219,
            "type": "Probe"
        },
        {
            "geometry": {
                "type": "Point",
                "coordinates": [
                    -9.0995,
                    38.7695
                ]
            },
            "id": 4474,
            "type": "Probe"
        },
        {
            "geometry": {
                "type": "Point",
                "coordinates": [
                    -0.0015,
                    42.6975
                ]
            },
            "id": 4520,
            "type": "Probe"
        },
        {
            "geometry": {
                "type": "Point",
                "coordinates": [
                    -9.1515,
                    38.7315
                ]
            },
            "id": 4529,
            "type": "Probe"
        },
        {
            "geometry": {
                "type": "Point",
                "coordinates": [
                    -8.5715,
                    41.1675
                ]
            },
            "id": 4631,
            "type": "Probe"
        },
        {
            "geometry": {
                "type": "Point",
                "coordinates": [
                    -0.8705,
                    38.0575
                ]
            },
            "id": 4640,
            "type": "Probe"
        },
        {
            "geometry": {
                "type": "Point",
                "coordinates": [
                    -1.2015,
                    37.9575
                ]
            },
            "id": 4730,
            "type": "Probe"
        }
    ]
}